^C:\USERS\NASSI\SOURCE\REPOS\NOODLE\NOODLE\X64\DEBUG\MAIN.OBJ
C:\USERS\NASSI\SOURCE\REPOS\NOODLE\X64\DEBUG\NOODLE.EXE
C:\USERS\NASSI\SOURCE\REPOS\NOODLE\X64\DEBUG\NOODLE.ILK
C:\USERS\NASSI\SOURCE\REPOS\NOODLE\X64\DEBUG\NOODLE.PDB
